\relax 
\@writefile{toc}{\contentsline {section}{\numberline {0.1}Error recovery}{3}}
\@writefile{tdo}{\contentsline {todo}{fertig zeichnen, brace for dem logical state.}{3}}
\pgfsyspdfmark {pgfid2}{7030046}{9690262}
\pgfsyspdfmark {pgfid5}{34178334}{9702550}
\pgfsyspdfmark {pgfid6}{38257950}{9478636}
\@writefile{lof}{\contentsline {figure}{\numberline {1}{\ignorespaces CAPTION}}{4}}
\newlabel{fig:stabilizer5qubit}{{1}{4}}
\@writefile{toc}{\contentsline {section}{\numberline {0.2}Clifford gates}{4}}
\@writefile{toc}{\contentsline {section}{\numberline {0.3}Fault tolerance: quantum computing}{5}}
\@writefile{lof}{\contentsline {figure}{\numberline {2}{\ignorespaces Circuit of Clifford gates (here CNOT) acting on a logical qubit, consisting of 4 single qubits.}}{6}}
\@writefile{lof}{\contentsline {figure}{\numberline {1.1}{\ignorespaces Energy level scheme of the diamond lattice and the additional nitrogen electron (green).}}{7}}
\@writefile{toc}{\contentsline {chapter}{\numberline {1}Experimental Implementation of QEC}{7}}
\@writefile{lof}{\addvspace {10\p@ }}
\@writefile{lot}{\addvspace {10\p@ }}
\@writefile{toc}{\contentsline {section}{\numberline {1.1}A First Example: Diamond Spins}{7}}
\@writefile{tdo}{\contentsline {todo}{Draw spin splitting into three level system of electronic ground state and arrow of observable light. Right next to the first plot, second plot with spliting of the $m=1$ level of the electron under one, and then two spin-half particles; below the not splitted $m=0$ line.}{7}}
\pgfsyspdfmark {pgfid10}{8013086}{9035032}
\pgfsyspdfmark {pgfid13}{34178334}{9047320}
\pgfsyspdfmark {pgfid14}{38257950}{8823406}
\@writefile{lof}{\contentsline {figure}{\numberline {1.2}{\ignorespaces Circuit of the quantum error correction}}{8}}
\@writefile{tdo}{\contentsline {todo}{For dem error: Cnot von oben und mitte nach unten. Nach Error: gleiches + CNot von unten nach ganz oben mit "`error correction"' dar\IeC {\"u}ber geschrieben}{8}}
\pgfsyspdfmark {pgfid16}{11552030}{15889982}
\pgfsyspdfmark {pgfid17}{5997854}{15902270}
\pgfsyspdfmark {pgfid18}{10077470}{15678356}
\@writefile{toc}{\contentsline {section}{\numberline {1.2}Error Correction in Ion Trap Quantum Computing}{8}}
\@writefile{tdo}{\contentsline {todo}{sketch of ion trap circuit}{9}}
\pgfsyspdfmark {pgfid21}{17198137}{41147542}
\pgfsyspdfmark {pgfid24}{34178334}{41159830}
\pgfsyspdfmark {pgfid25}{38257950}{40935916}
\@writefile{toc}{\contentsline {section}{\numberline {1.3}Error correction code}{9}}
\@writefile{toc}{\contentsline {section}{\numberline {1.4}Error correction in superconducting qubits}{9}}
\@writefile{tdo}{\contentsline {todo}{Schwingkreis zeichnen}{9}}
\pgfsyspdfmark {pgfid28}{26725469}{24362784}
\pgfsyspdfmark {pgfid31}{34178334}{24375072}
\pgfsyspdfmark {pgfid32}{38257950}{24151158}
\@writefile{lof}{\contentsline {figure}{\numberline {1.3}{\ignorespaces \textbf  {a)} Sketch of the energy levels and usage in quantum computing of $^{40}$Ca$^{+}$. \textbf  {b)} NOT gate in the physical implementation.}}{9}}
\newlabel{fig:level scheme 40Ca}{{1.3}{9}}
\@writefile{toc}{\contentsline {chapter}{\numberline {2}Toric code: Self correcting systems}{11}}
\@writefile{lof}{\addvspace {10\p@ }}
\@writefile{lot}{\addvspace {10\p@ }}
\@writefile{lof}{\contentsline {figure}{\numberline {2.1}{\ignorespaces Qubits (blue circles) on a lattice. Half qubits on the boundary are continued on the other side of the lattice. A vertex (red) and plaquette (green) is marked. A $X$-error chain, is marked on the qubits.}}{12}}
\newlabel{fig:Kitaev lattice}{{2.1}{12}}
\@writefile{lof}{\contentsline {figure}{\numberline {2.2}{\ignorespaces Different paths to close error chains.}}{13}}
\@writefile{lof}{\contentsline {figure}{\numberline {2.3}{\ignorespaces Normalizer $N_I$ on the lattice. Note that $O_I$ doesn't belong to the normalizer group, since it's closed from the outside.}}{13}}
\newlabel{fig:kitaev normalizer}{{2.3}{13}}
\@writefile{toc}{\contentsline {chapter}{\numberline {3}Implementations of Quantum Computation}{15}}
\@writefile{lof}{\addvspace {10\p@ }}
\@writefile{lot}{\addvspace {10\p@ }}
\@writefile{toc}{\contentsline {section}{\numberline {3.1}Superconducting Qubits}{16}}
\@writefile{tdo}{\contentsline {todo}{draw additional figures for charge qubit}{17}}
\pgfsyspdfmark {pgfid37}{23445026}{14533804}
\pgfsyspdfmark {pgfid40}{34178334}{14546092}
\pgfsyspdfmark {pgfid41}{38257950}{14322178}
\@writefile{lof}{\contentsline {figure}{\numberline {3.1}{\ignorespaces Short notation for the Josephon-$C$ circuit.}}{18}}
\@writefile{lof}{\contentsline {figure}{\numberline {3.2}{\ignorespaces Band-like structures emerging from Josephon-$C$ circuit with charge qubits.}}{18}}
\@writefile{lof}{\contentsline {figure}{\numberline {3.3}{\ignorespaces Cooper pair box, phase qubit and Flux qubit (Transmon).}}{18}}
\@writefile{toc}{\contentsline {section}{\numberline {3.2}Cooper Pair Boxes and other SC Qubits}{18}}
\@writefile{tdo}{\contentsline {todo}{Cooper pair box Flux und Phase qubit zeichnen}{18}}
\pgfsyspdfmark {pgfid47}{10568990}{20146898}
\pgfsyspdfmark {pgfid48}{5997854}{20159186}
\pgfsyspdfmark {pgfid49}{10077470}{19935272}
\@writefile{lof}{\contentsline {figure}{\numberline {3.4}{\ignorespaces Energy levels of Hamiltonian.}}{19}}
\@writefile{tdo}{\contentsline {todo}{Energy levels einzeichnen}{19}}
\pgfsyspdfmark {pgfid54}{20669638}{20909331}
\pgfsyspdfmark {pgfid57}{34178334}{20921619}
\pgfsyspdfmark {pgfid58}{38257950}{20697705}
\@writefile{toc}{\contentsline {subsection}{\numberline {3.2.1}Analog between LC-oscillator and Cooper pair box}{19}}
\@writefile{lof}{\contentsline {figure}{\numberline {3.5}{\ignorespaces Band Structures for different $E_j$.}}{20}}
\@writefile{toc}{\contentsline {subsection}{\numberline {3.2.2}Hamiltonian of Cooper pair box}{20}}
\@writefile{tdo}{\contentsline {todo}{draw $E_j \ll E_C$ und $E_j \gg E_C$ fertig, das Transmon qubit}{20}}
\pgfsyspdfmark {pgfid61}{32399118}{15077451}
\pgfsyspdfmark {pgfid62}{5997854}{15089739}
\pgfsyspdfmark {pgfid63}{10077470}{14865825}
\@writefile{toc}{\contentsline {subsection}{\numberline {3.2.3}Driving of a Superconducting Qubit}{20}}
\@writefile{toc}{\contentsline {section}{\numberline {3.3}Inductively shunted Qubits}{21}}
\@writefile{tdo}{\contentsline {todo}{draw this system}{21}}
\pgfsyspdfmark {pgfid68}{7030046}{41997449}
\pgfsyspdfmark {pgfid71}{34178334}{42009737}
\pgfsyspdfmark {pgfid72}{38257950}{41785823}
\@writefile{lof}{\contentsline {figure}{\numberline {3.6}{\ignorespaces Sweat spot of transmon qubits at the minimum, where the bands are maximal anharmonic and we have good coherence. at $E_q = E_0$ we have a harmonic dispersion.}}{21}}
\@writefile{lof}{\contentsline {figure}{\numberline {3.7}{\ignorespaces CAPTION}}{22}}
\@writefile{toc}{\contentsline {chapter}{\numberline {4}Circuit Quantum Electron Dynamics}{23}}
\@writefile{lof}{\addvspace {10\p@ }}
\@writefile{lot}{\addvspace {10\p@ }}
\@writefile{lof}{\contentsline {figure}{\numberline {4.1}{\ignorespaces Superconducting qubit in resonator.}}{25}}
\newlabel{fig:SCQB in Res}{{4.1}{25}}
\@writefile{toc}{\contentsline {section}{\numberline {4.1}Circuit QED}{25}}
\@writefile{toc}{\contentsline {section}{\numberline {4.2}Adiabatic theorem}{28}}
\@writefile{lof}{\contentsline {figure}{\numberline {4.2}{\ignorespaces The eigenvalue of the systems change under perturbation and an initial gap can decrease and even vanish under perturbation.}}{29}}
\newlabel{fig:eigenvalues pert}{{4.2}{29}}
\@writefile{toc}{\contentsline {subsection}{\numberline {4.2.1}Grover's search algorithm}{30}}
\@writefile{lof}{\contentsline {figure}{\numberline {4.3}{\ignorespaces Usual quantum computation (on the left) versus one way quantum computation (right).}}{31}}
\newlabel{fig:one way}{{4.3}{31}}
\@writefile{tdo}{\contentsline {todo}{Mathias Treuer Science 2015}{31}}
\pgfsyspdfmark {pgfid77}{8013086}{19254488}
\pgfsyspdfmark {pgfid80}{34178334}{19266776}
\pgfsyspdfmark {pgfid81}{38257950}{19042862}
\@writefile{toc}{\contentsline {section}{\numberline {4.3}One Way quantum computing}{31}}
\@writefile{toc}{\contentsline {chapter}{\numberline {A}Summary}{35}}
\@writefile{lof}{\addvspace {10\p@ }}
\@writefile{lot}{\addvspace {10\p@ }}
\@writefile{toc}{\contentsline {chapter}{\numberline {B}Quantum Communication}{37}}
\@writefile{lof}{\addvspace {10\p@ }}
\@writefile{lot}{\addvspace {10\p@ }}
\@writefile{lof}{\contentsline {figure}{\numberline {B.1}{\ignorespaces Sketch for segmentation of quantum repeaters.}}{38}}
\newlabel{fig:sketch segments}{{B.1}{38}}
\@writefile{lot}{\contentsline {table}{\numberline {B.1}{\ignorespaces Possible outcomes of the Bell measurement at one node of the quantum repeater.}}{38}}
\newlabel{tab:quantum repeater}{{B.1}{38}}
